{
  "Games": [
    {
      "Name": [
        "英雄聯盟",
        "League of Legends"
      ],
      "ReleaseDate": "2009/10/27",
      "Platform": [
        "Microsoft Windows",
        "Mac OS X"
      ],
      "Genre": [
        "動作即時戰略遊戲"
      ]
    },
    {
      "Name": [
        "神魔之塔",
        "Tower of Saviors"
      ],
      "ReleaseDate": "2013/02",
      "Platform": [
        "Android",
        "iOS"
      ],
      "Genre": [
        "Puzzle",
        "轉珠遊戲"
      ]
    },
    {
      "Name": [
        "SCIENCE KOMBAT"
      ],
      "Platform": [
        "Unity web player"
      ],
      "Genre": [
        "格鬥遊戲"
      ]
    }
  ]
}
